group01_lab05_part4/cpu_wavedata.vcd
$date
	Wed May 15 11:21:10 2024
$end
$version
	Icarus Verilog
$end
$timescale
	1s
$end
$scope module Testbench $end
$var wire 32 ! PC [31:0] $end
$var reg 1 " CLK $end
$var reg 32 # INSTRUCTION [31:0] $end
$var reg 1 $ RESET $end
$var integer 32 % i [31:0] $end
$scope module mycpu $end
$var wire 1 " CLK $end
$var wire 32 & INSTRUCTION [31:0] $end
$var wire 1 $ RESET $end
$var wire 1 ' zero $end
$var wire 3 ( writereg [2:0] $end
$var wire 8 ) writedata [7:0] $end
$var wire 1 * writeanable $end
$var wire 8 + twoscompout [7:0] $end
$var wire 8 , regout2ORimmediate [7:0] $end
$var wire 8 - regout2 [7:0] $end
$var wire 8 . regout1 [7:0] $end
$var wire 3 / readreg2 [2:0] $end
$var wire 3 0 readreg1 [2:0] $end
$var wire 8 1 opcode [7:0] $end
$var wire 1 2 muxcontrol $end
$var wire 32 3 leftshiftout [31:0] $end
$var wire 8 4 jumpOrbranch [7:0] $end
$var wire 1 5 jump $end
$var wire 1 6 istwoscomp $end
$var wire 1 7 isregout $end
$var wire 8 8 immediate [7:0] $end
$var wire 32 9 extendedvalue [31:0] $end
$var wire 1 : branch $end
$var wire 32 ; PC_data [31:0] $end
$var wire 8 < I12 [7:0] $end
$var wire 3 = ALUop [2:0] $end
$scope module alu $end
$var wire 3 > select [2:0] $end
$var wire 8 ? result [7:0] $end
$var wire 8 @ data2 [7:0] $end
$var wire 8 A data1 [7:0] $end
$var wire 8 B Ii4 [7:0] $end
$var wire 8 C Ii3 [7:0] $end
$var wire 8 D Ii2 [7:0] $end
$var wire 8 E Ii1 [7:0] $end
$var reg 1 ' zero $end
$scope module add $end
$var wire 8 F result [7:0] $end
$var wire 8 G data2 [7:0] $end
$var wire 8 H data1 [7:0] $end
$upscope $end
$scope module and1 $end
$var wire 8 I result [7:0] $end
$var wire 8 J data2 [7:0] $end
$var wire 8 K data1 [7:0] $end
$upscope $end
$scope module forward $end
$var wire 8 L result [7:0] $end
$var wire 8 M data2 [7:0] $end
$upscope $end
$scope module mux $end
$var wire 8 N I1 [7:0] $end
$var wire 8 O I2 [7:0] $end
$var wire 8 P I3 [7:0] $end
$var wire 3 Q select [2:0] $end
$var wire 8 R I4 [7:0] $end
$var reg 8 S result [7:0] $end
$upscope $end
$scope module or1 $end
$var wire 8 T result [7:0] $end
$var wire 8 U data2 [7:0] $end
$var wire 8 V data1 [7:0] $end
$upscope $end
$upscope $end
$scope module controlUnit1 $end
$var wire 8 W opcode [7:0] $end
$var reg 3 X ALUop [2:0] $end
$var reg 1 : branch $end
$var reg 1 7 isregout $end
$var reg 1 6 istwoscomp $end
$var reg 1 5 jump $end
$var reg 1 * writeanable $end
$upscope $end
$scope module dec $end
$var wire 32 Y instruction [31:0] $end
$var reg 8 Z immediate [7:0] $end
$var reg 8 [ jumpOrbranch [7:0] $end
$var reg 8 \ opcode [7:0] $end
$var reg 3 ] readreg1 [2:0] $end
$var reg 3 ^ readreg2 [2:0] $end
$var reg 3 _ writereg [2:0] $end
$upscope $end
$scope module leftshift1 $end
$var wire 32 ` result [31:0] $end
$var wire 32 a data1 [31:0] $end
$upscope $end
$scope module mux1 $end
$var wire 1 6 select $end
$var wire 8 b input2 [7:0] $end
$var wire 8 c input1 [7:0] $end
$var reg 8 d out [7:0] $end
$upscope $end
$scope module mux2 $end
$var wire 8 e input1 [7:0] $end
$var wire 8 f input2 [7:0] $end
$var wire 1 7 select $end
$var reg 8 g out [7:0] $end
$upscope $end
$scope module mux32bit_control1 $end
$var wire 1 : branch $end
$var wire 1 5 jump $end
$var wire 1 ' zero $end
$var reg 1 2 result $end
$upscope $end
$scope module pc1 $end
$var wire 1 " CLK $end
$var wire 1 $ RESET $end
$var wire 32 h leftshiftout [31:0] $end
$var wire 1 2 muxcontrol $end
$var reg 32 i PC [31:0] $end
$var reg 32 j PC_data [31:0] $end
$upscope $end
$scope module regfile $end
$var wire 1 " CLOCK $end
$var wire 8 k IN [7:0] $end
$var wire 3 l INADDRESS [2:0] $end
$var wire 8 m OUT1 [7:0] $end
$var wire 3 n OUT1ADDRESS [2:0] $end
$var wire 8 o OUT2 [7:0] $end
$var wire 3 p OUT2ADDRESS [2:0] $end
$var wire 1 $ RESET $end
$var wire 1 * WRITE $end
$var integer 32 q i [31:0] $end
$upscope $end
$scope module signextend1 $end
$var wire 8 r data [7:0] $end
$var reg 32 s result [31:0] $end
$upscope $end
$scope module twoscom $end
$var wire 8 t input_nupm [7:0] $end
$var reg 8 u output_nupm [7:0] $end
$upscope $end
$upscope $end
$upscope $end
$scope module Testbench $end
$scope module mycpu $end
$scope module regfile $end
$var reg 8 v \REGISTER[0] [7:0] $end
$upscope $end
$upscope $end
$upscope $end
$scope module Testbench $end
$scope module mycpu $end
$scope module regfile $end
$var reg 8 w \REGISTER[1] [7:0] $end
$upscope $end
$upscope $end
$upscope $end
$scope module Testbench $end
$scope module mycpu $end
$scope module regfile $end
$var reg 8 x \REGISTER[2] [7:0] $end
$upscope $end
$upscope $end
$upscope $end
$scope module Testbench $end
$scope module mycpu $end
$scope module regfile $end
$var reg 8 y \REGISTER[3] [7:0] $end
$upscope $end
$upscope $end
$upscope $end
$scope module Testbench $end
$scope module mycpu $end
$scope module regfile $end
$var reg 8 z \REGISTER[4] [7:0] $end
$upscope $end
$upscope $end
$upscope $end
$scope module Testbench $end
$scope module mycpu $end
$scope module regfile $end
$var reg 8 { \REGISTER[5] [7:0] $end
$upscope $end
$upscope $end
$upscope $end
$scope module Testbench $end
$scope module mycpu $end
$scope module regfile $end
$var reg 8 | \REGISTER[6] [7:0] $end
$upscope $end
$upscope $end
$upscope $end
$scope module Testbench $end
$scope module mycpu $end
$scope module regfile $end
$var reg 8 } \REGISTER[7] [7:0] $end
$upscope $end
$upscope $end
$upscope $end
$enddefinitions $end
$comment Show the parameter values. $end
$dumpall
$end
#0
$dumpvars
bx }
bx |
bx {
bx z
bx y
bx x
bx w
bx v
bx u
bx t
bx s
bx r
bx q
bx p
bx o
bx n
bx m
bx l
bx k
bx j
bx i
bx00 h
bx g
bx f
bx e
bx d
bx c
bx b
bx a
bx00 `
bx _
bx ^
bx ]
bx \
bx [
bx Z
bx Y
bx X
bx W
bx V
bx U
bx T
bx S
bx R
bx Q
bx P
bx O
bx N
bx M
bx L
bx K
bx J
bx I
bx H
bx G
bx F
bx E
bx D
bx C
bx B
bx A
bx @
bx ?
bx >
bx =
bx <
bx ;
x:
bx 9
bx 8
x7
x6
x5
bx 4
bx00 3
x2
bx 1
bx 0
bx /
bx .
bx -
bx ,
bx +
x*
bx )
bx (
x'
bx &
b1000 %
1$
bx #
0"
bx !
$end
#4
1"
#5
b0 }
b0 |
b0 {
b0 z
b0 y
b0 x
b0 w
b0 v
b0 !
b0 ;
b0 j
b1000 q
#6
0$
#7
b10000 3
b10000 `
b10000 h
02
b100 9
b100 a
b100 s
b1010 ,
b1010 @
b1010 G
b1010 J
b1010 M
b1010 U
b1010 g
05
0:
b0 =
b0 >
b0 Q
b0 X
07
06
1*
b100 4
b100 [
b100 r
b1010 8
b1010 Z
b1010 e
b10 /
b10 ^
b10 p
b0 0
b0 ]
b0 n
b100 (
b100 _
b100 l
b0 1
b0 W
b0 \
b1000000000000001010 #
b1000000000000001010 &
b1000000000000001010 Y
#8
0'
b1010 )
b1010 ?
b1010 S
b1010 k
bx1x1x B
bx1x1x R
bx1x1x T
b0x0x0 C
b0x0x0 I
b0x0x0 P
b1010 E
b1010 L
b1010 N
0"
#9
b0 <
b0 d
b0 f
b0 -
b0 c
b0 o
b0 t
b0 .
b0 A
b0 H
b0 K
b0 V
b0 m
#10
b0 +
b0 b
b0 u
b1010 B
b1010 R
b1010 T
b0 C
b0 I
b0 P
#11
b1010 D
b1010 F
b1010 O
#12
1"
#13
b1010 z
b100 !
b100 ;
b100 j
#15
b10100 3
b10100 `
b10100 h
b101 9
b101 a
b101 s
b1 ,
b1 @
b1 G
b1 J
b1 M
b1 U
b1 g
b101 4
b101 [
b101 r
b1 8
b1 Z
b1 e
b1 /
b1 ^
b1 p
b101 (
b101 _
b101 l
b1010000000000000001 #
b1010000000000000001 &
b1010000000000000001 Y
#16
b1 )
b1 ?
b1 S
b1 k
b1 B
b1 R
b1 T
b1 E
b1 L
b1 N
0"
#17
b1 D
b1 F
b1 O
#20
1"
#21
b1 {
b1000 !
b1000 ;
b1000 j
#23
b11000 3
b11000 `
b11000 h
b110 9
b110 a
b110 s
b110 4
b110 [
b110 r
b110 (
b110 _
b110 l
b1100000000000000001 #
b1100000000000000001 &
b1100000000000000001 Y
#24
0"
#28
1"
#29
b1 |
b1100 !
b1100 ;
b1100 j
#31
b11100 3
b11100 `
b11100 h
b111 9
b111 a
b111 s
b1001 ,
b1001 @
b1001 G
b1001 J
b1001 M
b1001 U
b1001 g
b111 4
b111 [
b111 r
b1001 8
b1001 Z
b1001 e
b111 (
b111 _
b111 l
b1110000000000001001 #
b1110000000000001001 &
b1110000000000001001 Y
#32
b1001 )
b1001 ?
b1001 S
b1001 k
b1001 B
b1001 R
b1001 T
b1001 E
b1001 L
b1001 N
0"
#33
b1001 D
b1001 F
b1001 O
#36
1"
#37
b1001 }
b10000 !
b10000 ;
b10000 j
#39
b10000 3
b10000 `
b10000 h
b100 9
b100 a
b100 s
b0 ,
b0 @
b0 G
b0 J
b0 M
b0 U
b0 g
b1 =
b1 >
b1 Q
b1 X
17
16
b100 4
b100 [
b100 r
b101 8
b101 Z
b101 e
b101 /
b101 ^
b101 p
b100 0
b100 ]
b100 n
b100 (
b100 _
b100 l
b11 1
b11 W
b11 \
b11000001000000010000000101 #
b11000001000000010000000101 &
b11000001000000010000000101 Y
#40
b0 B
b0 R
b0 T
b0 E
b0 L
b0 N
0"
#41
1'
b0 )
b0 ?
b0 S
b0 k
b0 D
b0 F
b0 O
b1 -
b1 c
b1 o
b1 t
b1010 .
b1010 A
b1010 H
b1010 K
b1010 V
b1010 m
#42
b11111111 ,
b11111111 @
b11111111 G
b11111111 J
b11111111 M
b11111111 U
b11111111 g
b11111111 <
b11111111 d
b11111111 f
b11111111 +
b11111111 b
b11111111 u
b1010 B
b1010 R
b1010 T
#43
b11111111 B
b11111111 R
b11111111 T
b1010 C
b1010 I
b1010 P
b11111111 E
b11111111 L
b11111111 N
#44
0'
b1001 )
b1001 ?
b1001 S
b1001 k
b1001 D
b1001 F
b1001 O
1"
#45
b1001 z
b10100 !
b10100 ;
b10100 j
#47
b100 3
b100 `
b100 h
b1 9
b1 a
b1 s
1:
0*
b1 4
b1 [
b1 r
b110 8
b110 Z
b110 e
b110 /
b110 ^
b110 p
b1 (
b1 _
b1 l
b111 1
b111 W
b111 \
b111000000010000010000000110 #
b111000000010000010000000110 &
b111000000010000010000000110 Y
b1001 .
b1001 A
b1001 H
b1001 K
b1001 V
b1001 m
#48
b1001 C
b1001 I
b1001 P
0"
#49
b1000 )
b1000 ?
b1000 S
b1000 k
b1000 D
b1000 F
b1000 O
#52
1"
#53
b11000 !
b11000 ;
b11000 j
#55
b11111111 )
b11111111 ?
b11111111 S
b11111111 k
b11111111111111111111111111110100 3
b11111111111111111111111111110100 `
b11111111111111111111111111110100 h
12
b1 <
b1 d
b1 f
b11111111111111111111111111111101 9
b11111111111111111111111111111101 a
b11111111111111111111111111111101 s
b0 ,
b0 @
b0 G
b0 J
b0 M
b0 U
b0 g
15
0:
b0 =
b0 >
b0 Q
b0 X
07
06
b11111101 4
b11111101 [
b11111101 r
b0 8
b0 Z
b0 e
b0 /
b0 ^
b0 p
b0 0
b0 ]
b0 n
b101 (
b101 _
b101 l
b110 1
b110 W
b110 \
b110111111010000000000000000 #
b110111111010000000000000000 &
b110111111010000000000000000 Y
#56
1'
b0 )
b0 ?
b0 S
b0 k
b1001 B
b1001 R
b1001 T
b0 C
b0 I
b0 P
b0 E
b0 L
b0 N
0"
#57
b0 <
b0 d
b0 f
b1001 D
b1001 F
b1001 O
b0 -
b0 c
b0 o
b0 t
b0 .
b0 A
b0 H
b0 K
b0 V
b0 m
#58
b0 +
b0 b
b0 u
b0 B
b0 R
b0 T
#59
b0 D
b0 F
b0 O
#60
1"
#61
b10000 !
b10000 ;
b10000 j
#63
b10000 3
b10000 `
b10000 h
02
b100 9
b100 a
b100 s
05
b1 =
b1 >
b1 Q
b1 X
17
16
1*
b100 4
b100 [
b100 r
b101 8
b101 Z
b101 e
b101 /
b101 ^
b101 p
b100 0
b100 ]
b100 n
b100 (
b100 _
b100 l
b11 1
b11 W
b11 \
b11000001000000010000000101 #
b11000001000000010000000101 &
b11000001000000010000000101 Y
#64
0"
#65
b1 -
b1 c
b1 o
b1 t
b1001 .
b1001 A
b1001 H
b1001 K
b1001 V
b1001 m
#66
b11111111 ,
b11111111 @
b11111111 G
b11111111 J
b11111111 M
b11111111 U
b11111111 g
b11111111 <
b11111111 d
b11111111 f
b11111111 +
b11111111 b
b11111111 u
b1001 B
b1001 R
b1001 T
#67
b11111111 B
b11111111 R
b11111111 T
b1001 C
b1001 I
b1001 P
b11111111 E
b11111111 L
b11111111 N
#68
0'
b1000 )
b1000 ?
b1000 S
b1000 k
b1000 D
b1000 F
b1000 O
1"
#69
b1000 z
b10100 !
b10100 ;
b10100 j
#71
b100 3
b100 `
b100 h
b1 9
b1 a
b1 s
1:
0*
b1 4
b1 [
b1 r
b110 8
b110 Z
b110 e
b110 /
b110 ^
b110 p
b1 (
b1 _
b1 l
b111 1
b111 W
b111 \
b111000000010000010000000110 #
b111000000010000010000000110 &
b111000000010000010000000110 Y
b1000 .
b1000 A
b1000 H
b1000 K
b1000 V
b1000 m
#72
b1000 C
b1000 I
b1000 P
0"
#73
b111 )
b111 ?
b111 S
b111 k
b111 D
b111 F
b111 O
#76
1"
#77
b11000 !
b11000 ;
b11000 j
#79
b11111111 )
b11111111 ?
b11111111 S
b11111111 k
b11111111111111111111111111110100 3
b11111111111111111111111111110100 `
b11111111111111111111111111110100 h
12
b1 <
b1 d
b1 f
b11111111111111111111111111111101 9
b11111111111111111111111111111101 a
b11111111111111111111111111111101 s
b0 ,
b0 @
b0 G
b0 J
b0 M
b0 U
b0 g
15
0:
b0 =
b0 >
b0 Q
b0 X
07
06
b11111101 4
b11111101 [
b11111101 r
b0 8
b0 Z
b0 e
b0 /
b0 ^
b0 p
b0 0
b0 ]
b0 n
b101 (
b101 _
b101 l
b110 1
b110 W
b110 \
b110111111010000000000000000 #
b110111111010000000000000000 &
b110111111010000000000000000 Y
#80
1'
b0 )
b0 ?
b0 S
b0 k
b1000 B
b1000 R
b1000 T
b0 C
b0 I
b0 P
b0 E
b0 L
b0 N
0"
#81
b0 <
b0 d
b0 f
b1000 D
b1000 F
b1000 O
b0 -
b0 c
b0 o
b0 t
b0 .
b0 A
b0 H
b0 K
b0 V
b0 m
#82
b0 +
b0 b
b0 u
b0 B
b0 R
b0 T
#83
b0 D
b0 F
b0 O
#84
1"
#85
b10000 !
b10000 ;
b10000 j
#87
b10000 3
b10000 `
b10000 h
02
b100 9
b100 a
b100 s
05
b1 =
b1 >
b1 Q
b1 X
17
16
1*
b100 4
b100 [
b100 r
b101 8
b101 Z
b101 e
b101 /
b101 ^
b101 p
b100 0
b100 ]
b100 n
b100 (
b100 _
b100 l
b11 1
b11 W
b11 \
b11000001000000010000000101 #
b11000001000000010000000101 &
b11000001000000010000000101 Y
#88
0"
#89
b1 -
b1 c
b1 o
b1 t
b1000 .
b1000 A
b1000 H
b1000 K
b1000 V
b1000 m
#90
b11111111 ,
b11111111 @
b11111111 G
b11111111 J
b11111111 M
b11111111 U
b11111111 g
b11111111 <
b11111111 d
b11111111 f
b11111111 +
b11111111 b
b11111111 u
b1000 B
b1000 R
b1000 T
#91
b11111111 B
b11111111 R
b11111111 T
b1000 C
b1000 I
b1000 P
b11111111 E
b11111111 L
b11111111 N
#92
0'
b111 )
b111 ?
b111 S
b111 k
b111 D
b111 F
b111 O
1"
#93
b111 z
b10100 !
b10100 ;
b10100 j
#95
b100 3
b100 `
b100 h
b1 9
b1 a
b1 s
1:
0*
b1 4
b1 [
b1 r
b110 8
b110 Z
b110 e
b110 /
b110 ^
b110 p
b1 (
b1 _
b1 l
b111 1
b111 W
b111 \
b111000000010000010000000110 #
b111000000010000010000000110 &
b111000000010000010000000110 Y
b111 .
b111 A
b111 H
b111 K
b111 V
b111 m
#96
b111 C
b111 I
b111 P
0"
#97
b110 )
b110 ?
b110 S
b110 k
b110 D
b110 F
b110 O
#100
1"
#101
b11000 !
b11000 ;
b11000 j
#103
b11111111 )
b11111111 ?
b11111111 S
b11111111 k
b11111111111111111111111111110100 3
b11111111111111111111111111110100 `
b11111111111111111111111111110100 h
12
b1 <
b1 d
b1 f
b11111111111111111111111111111101 9
b11111111111111111111111111111101 a
b11111111111111111111111111111101 s
b0 ,
b0 @
b0 G
b0 J
b0 M
b0 U
b0 g
15
0:
b0 =
b0 >
b0 Q
b0 X
07
06
b11111101 4
b11111101 [
b11111101 r
b0 8
b0 Z
b0 e
b0 /
b0 ^
b0 p
b0 0
b0 ]
b0 n
b101 (
b101 _
b101 l
b110 1
b110 W
b110 \
b110111111010000000000000000 #
b110111111010000000000000000 &
b110111111010000000000000000 Y
#104
1'
b0 )
b0 ?
b0 S
b0 k
b111 B
b111 R
b111 T
b0 C
b0 I
b0 P
b0 E
b0 L
b0 N
0"
#105
b0 <
b0 d
b0 f
b111 D
b111 F
b111 O
b0 -
b0 c
b0 o
b0 t
b0 .
b0 A
b0 H
b0 K
b0 V
b0 m
#106
b0 +
b0 b
b0 u
b0 B
b0 R
b0 T
#107
b0 D
b0 F
b0 O
#108
1"
#109
b10000 !
b10000 ;
b10000 j
#111
b10000 3
b10000 `
b10000 h
02
b100 9
b100 a
b100 s
05
b1 =
b1 >
b1 Q
b1 X
17
16
1*
b100 4
b100 [
b100 r
b101 8
b101 Z
b101 e
b101 /
b101 ^
b101 p
b100 0
b100 ]
b100 n
b100 (
b100 _
b100 l
b11 1
b11 W
b11 \
b11000001000000010000000101 #
b11000001000000010000000101 &
b11000001000000010000000101 Y
#112
0"
#113
b1 -
b1 c
b1 o
b1 t
b111 .
b111 A
b111 H
b111 K
b111 V
b111 m
#114
b11111111 ,
b11111111 @
b11111111 G
b11111111 J
b11111111 M
b11111111 U
b11111111 g
b11111111 <
b11111111 d
b11111111 f
b11111111 +
b11111111 b
b11111111 u
b111 B
b111 R
b111 T
#115
b11111111 B
b11111111 R
b11111111 T
b111 C
b111 I
b111 P
b11111111 E
b11111111 L
b11111111 N
#116
0'
b110 )
b110 ?
b110 S
b110 k
b110 D
b110 F
b110 O
1"
#117
b110 z
b10100 !
b10100 ;
b10100 j
#119
b100 3
b100 `
b100 h
b1 9
b1 a
b1 s
1:
0*
b1 4
b1 [
b1 r
b110 8
b110 Z
b110 e
b110 /
b110 ^
b110 p
b1 (
b1 _
b1 l
b111 1
b111 W
b111 \
b111000000010000010000000110 #
b111000000010000010000000110 &
b111000000010000010000000110 Y
b110 .
b110 A
b110 H
b110 K
b110 V
b110 m
#120
b110 C
b110 I
b110 P
0"
#121
b101 )
b101 ?
b101 S
b101 k
b101 D
b101 F
b101 O
#124
1"
#125
b11000 !
b11000 ;
b11000 j
#127
b11111111 )
b11111111 ?
b11111111 S
b11111111 k
b11111111111111111111111111110100 3
b11111111111111111111111111110100 `
b11111111111111111111111111110100 h
12
b1 <
b1 d
b1 f
b11111111111111111111111111111101 9
b11111111111111111111111111111101 a
b11111111111111111111111111111101 s
b0 ,
b0 @
b0 G
b0 J
b0 M
b0 U
b0 g
15
0:
b0 =
b0 >
b0 Q
b0 X
07
06
b11111101 4
b11111101 [
b11111101 r
b0 8
b0 Z
b0 e
b0 /
b0 ^
b0 p
b0 0
b0 ]
b0 n
b101 (
b101 _
b101 l
b110 1
b110 W
b110 \
b110111111010000000000000000 #
b110111111010000000000000000 &
b110111111010000000000000000 Y
#128
1'
b0 )
b0 ?
b0 S
b0 k
b110 B
b110 R
b110 T
b0 C
b0 I
b0 P
b0 E
b0 L
b0 N
0"
#129
b0 <
b0 d
b0 f
b110 D
b110 F
b110 O
b0 -
b0 c
b0 o
b0 t
b0 .
b0 A
b0 H
b0 K
b0 V
b0 m
#130
b0 +
b0 b
b0 u
b0 B
b0 R
b0 T
#131
b0 D
b0 F
b0 O
#132
1"
#133
b10000 !
b10000 ;
b10000 j
#135
b10000 3
b10000 `
b10000 h
02
b100 9
b100 a
b100 s
05
b1 =
b1 >
b1 Q
b1 X
17
16
1*
b100 4
b100 [
b100 r
b101 8
b101 Z
b101 e
b101 /
b101 ^
b101 p
b100 0
b100 ]
b100 n
b100 (
b100 _
b100 l
b11 1
b11 W
b11 \
b11000001000000010000000101 #
b11000001000000010000000101 &
b11000001000000010000000101 Y
#136
0"
#137
b1 -
b1 c
b1 o
b1 t
b110 .
b110 A
b110 H
b110 K
b110 V
b110 m
#138
b11111111 ,
b11111111 @
b11111111 G
b11111111 J
b11111111 M
b11111111 U
b11111111 g
b11111111 <
b11111111 d
b11111111 f
b11111111 +
b11111111 b
b11111111 u
b110 B
b110 R
b110 T
#139
b11111111 B
b11111111 R
b11111111 T
b110 C
b110 I
b110 P
b11111111 E
b11111111 L
b11111111 N
#140
0'
b101 )
b101 ?
b101 S
b101 k
b101 D
b101 F
b101 O
1"
#141
b101 z
b10100 !
b10100 ;
b10100 j
#143
b100 3
b100 `
b100 h
b1 9
b1 a
b1 s
1:
0*
b1 4
b1 [
b1 r
b110 8
b110 Z
b110 e
b110 /
b110 ^
b110 p
b1 (
b1 _
b1 l
b111 1
b111 W
b111 \
b111000000010000010000000110 #
b111000000010000010000000110 &
b111000000010000010000000110 Y
b101 .
b101 A
b101 H
b101 K
b101 V
b101 m
#144
b101 C
b101 I
b101 P
0"
#145
b100 )
b100 ?
b100 S
b100 k
b100 D
b100 F
b100 O
#148
1"
#149
b11000 !
b11000 ;
b11000 j
#151
b11111111 )
b11111111 ?
b11111111 S
b11111111 k
b11111111111111111111111111110100 3
b11111111111111111111111111110100 `
b11111111111111111111111111110100 h
12
b1 <
b1 d
b1 f
b11111111111111111111111111111101 9
b11111111111111111111111111111101 a
b11111111111111111111111111111101 s
b0 ,
b0 @
b0 G
b0 J
b0 M
b0 U
b0 g
15
0:
b0 =
b0 >
b0 Q
b0 X
07
06
b11111101 4
b11111101 [
b11111101 r
b0 8
b0 Z
b0 e
b0 /
b0 ^
b0 p
b0 0
b0 ]
b0 n
b101 (
b101 _
b101 l
b110 1
b110 W
b110 \
b110111111010000000000000000 #
b110111111010000000000000000 &
b110111111010000000000000000 Y
#152
1'
b0 )
b0 ?
b0 S
b0 k
b101 B
b101 R
b101 T
b0 C
b0 I
b0 P
b0 E
b0 L
b0 N
0"
#153
b0 <
b0 d
b0 f
b101 D
b101 F
b101 O
b0 -
b0 c
b0 o
b0 t
b0 .
b0 A
b0 H
b0 K
b0 V
b0 m
#154
b0 +
b0 b
b0 u
b0 B
b0 R
b0 T
#155
b0 D
b0 F
b0 O
#156
1"
#157
b10000 !
b10000 ;
b10000 j
#159
b10000 3
b10000 `
b10000 h
02
b100 9
b100 a
b100 s
05
b1 =
b1 >
b1 Q
b1 X
17
16
1*
b100 4
b100 [
b100 r
b101 8
b101 Z
b101 e
b101 /
b101 ^
b101 p
b100 0
b100 ]
b100 n
b100 (
b100 _
b100 l
b11 1
b11 W
b11 \
b11000001000000010000000101 #
b11000001000000010000000101 &
b11000001000000010000000101 Y
#160
0"
#161
b1 -
b1 c
b1 o
b1 t
b101 .
b101 A
b101 H
b101 K
b101 V
b101 m
#162
b11111111 ,
b11111111 @
b11111111 G
b11111111 J
b11111111 M
b11111111 U
b11111111 g
b11111111 <
b11111111 d
b11111111 f
b11111111 +
b11111111 b
b11111111 u
b101 B
b101 R
b101 T
#163
b11111111 B
b11111111 R
b11111111 T
b101 C
b101 I
b101 P
b11111111 E
b11111111 L
b11111111 N
#164
0'
b100 )
b100 ?
b100 S
b100 k
b100 D
b100 F
b100 O
1"
#165
b100 z
b10100 !
b10100 ;
b10100 j
#167
b100 3
b100 `
b100 h
b1 9
b1 a
b1 s
1:
0*
b1 4
b1 [
b1 r
b110 8
b110 Z
b110 e
b110 /
b110 ^
b110 p
b1 (
b1 _
b1 l
b111 1
b111 W
b111 \
b111000000010000010000000110 #
b111000000010000010000000110 &
b111000000010000010000000110 Y
b100 .
b100 A
b100 H
b100 K
b100 V
b100 m
#168
b100 C
b100 I
b100 P
0"
#169
b11 )
b11 ?
b11 S
b11 k
b11 D
b11 F
b11 O
#172
1"
#173
b11000 !
b11000 ;
b11000 j
#175
b11111111 )
b11111111 ?
b11111111 S
b11111111 k
b11111111111111111111111111110100 3
b11111111111111111111111111110100 `
b11111111111111111111111111110100 h
12
b1 <
b1 d
b1 f
b11111111111111111111111111111101 9
b11111111111111111111111111111101 a
b11111111111111111111111111111101 s
b0 ,
b0 @
b0 G
b0 J
b0 M
b0 U
b0 g
15
0:
b0 =
b0 >
b0 Q
b0 X
07
06
b11111101 4
b11111101 [
b11111101 r
b0 8
b0 Z
b0 e
b0 /
b0 ^
b0 p
b0 0
b0 ]
b0 n
b101 (
b101 _
b101 l
b110 1
b110 W
b110 \
b110111111010000000000000000 #
b110111111010000000000000000 &
b110111111010000000000000000 Y
#176
1'
b0 )
b0 ?
b0 S
b0 k
b100 B
b100 R
b100 T
b0 C
b0 I
b0 P
b0 E
b0 L
b0 N
0"
#177
b0 <
b0 d
b0 f
b100 D
b100 F
b100 O
b0 -
b0 c
b0 o
b0 t
b0 .
b0 A
b0 H
b0 K
b0 V
b0 m
#178
b0 +
b0 b
b0 u
b0 B
b0 R
b0 T
#179
b0 D
b0 F
b0 O
#180
1"
#181
b10000 !
b10000 ;
b10000 j
#183
b10000 3
b10000 `
b10000 h
02
b100 9
b100 a
b100 s
05
b1 =
b1 >
b1 Q
b1 X
17
16
1*
b100 4
b100 [
b100 r
b101 8
b101 Z
b101 e
b101 /
b101 ^
b101 p
b100 0
b100 ]
b100 n
b100 (
b100 _
b100 l
b11 1
b11 W
b11 \
b11000001000000010000000101 #
b11000001000000010000000101 &
b11000001000000010000000101 Y
#184
0"
#185
b1 -
b1 c
b1 o
b1 t
b100 .
b100 A
b100 H
b100 K
b100 V
b100 m
#186
b11111111 ,
b11111111 @
b11111111 G
b11111111 J
b11111111 M
b11111111 U
b11111111 g
b11111111 <
b11111111 d
b11111111 f
b11111111 +
b11111111 b
b11111111 u
b100 B
b100 R
b100 T
#187
b11111111 B
b11111111 R
b11111111 T
b100 C
b100 I
b100 P
b11111111 E
b11111111 L
b11111111 N
#188
0'
b11 )
b11 ?
b11 S
b11 k
b11 D
b11 F
b11 O
1"
#189
b11 z
b10100 !
b10100 ;
b10100 j
#191
b100 3
b100 `
b100 h
b1 9
b1 a
b1 s
1:
0*
b1 4
b1 [
b1 r
b110 8
b110 Z
b110 e
b110 /
b110 ^
b110 p
b1 (
b1 _
b1 l
b111 1
b111 W
b111 \
b111000000010000010000000110 #
b111000000010000010000000110 &
b111000000010000010000000110 Y
b11 .
b11 A
b11 H
b11 K
b11 V
b11 m
#192
b11 C
b11 I
b11 P
0"
#193
b10 )
b10 ?
b10 S
b10 k
b10 D
b10 F
b10 O
#196
1"
#197
b11000 !
b11000 ;
b11000 j
#199
b11111111 )
b11111111 ?
b11111111 S
b11111111 k
b11111111111111111111111111110100 3
b11111111111111111111111111110100 `
b11111111111111111111111111110100 h
12
b1 <
b1 d
b1 f
b11111111111111111111111111111101 9
b11111111111111111111111111111101 a
b11111111111111111111111111111101 s
b0 ,
b0 @
b0 G
b0 J
b0 M
b0 U
b0 g
15
0:
b0 =
b0 >
b0 Q
b0 X
07
06
b11111101 4
b11111101 [
b11111101 r
b0 8
b0 Z
b0 e
b0 /
b0 ^
b0 p
b0 0
b0 ]
b0 n
b101 (
b101 _
b101 l
b110 1
b110 W
b110 \
b110111111010000000000000000 #
b110111111010000000000000000 &
b110111111010000000000000000 Y
#200
1'
b0 )
b0 ?
b0 S
b0 k
b11 B
b11 R
b11 T
b0 C
b0 I
b0 P
b0 E
b0 L
b0 N
0"
#201
b0 <
b0 d
b0 f
b11 D
b11 F
b11 O
b0 -
b0 c
b0 o
b0 t
b0 .
b0 A
b0 H
b0 K
b0 V
b0 m
#202
b0 +
b0 b
b0 u
b0 B
b0 R
b0 T
#203
b0 D
b0 F
b0 O
#204
1"
#205
b10000 !
b10000 ;
b10000 j
#207
b10000 3
b10000 `
b10000 h
02
b100 9
b100 a
b100 s
05
b1 =
b1 >
b1 Q
b1 X
17
16
1*
b100 4
b100 [
b100 r
b101 8
b101 Z
b101 e
b101 /
b101 ^
b101 p
b100 0
b100 ]
b100 n
b100 (
b100 _
b100 l
b11 1
b11 W
b11 \
b11000001000000010000000101 #
b11000001000000010000000101 &
b11000001000000010000000101 Y
#208
0"
#209
b1 -
b1 c
b1 o
b1 t
b11 .
b11 A
b11 H
b11 K
b11 V
b11 m
#210
b11111111 ,
b11111111 @
b11111111 G
b11111111 J
b11111111 M
b11111111 U
b11111111 g
b11111111 <
b11111111 d
b11111111 f
b11111111 +
b11111111 b
b11111111 u
b11 B
b11 R
b11 T
#211
b11111111 B
b11111111 R
b11111111 T
b11 C
b11 I
b11 P
b11111111 E
b11111111 L
b11111111 N
#212
0'
b10 )
b10 ?
b10 S
b10 k
b10 D
b10 F
b10 O
1"
#213
b10 z
b10100 !
b10100 ;
b10100 j
